2007_000123
2007_000515
2007_000862
2007_001289
2007_002198
2007_002266
2007_002668
2007_003861
2007_003872
2007_004238
2007_004517
2007_004705
2007_005058
2007_005074
2007_006661
2007_006673
2007_006864
2007_007480
2007_007891
2007_007947
2007_008403
2007_008927
2007_009391
2007_009413
2008_000151
2008_000264
2008_000475
2008_000650
2008_000742
2008_000828
2008_000899
2008_000970
2008_001026
2008_001081
2008_001147
2008_001154
2008_001235
2008_001382
2008_001448
2008_001645
2008_001710
2008_001729
2008_001816
2008_001842
2008_001869
2008_002017
2008_002243
2008_002288
2008_002349
2008_002527
2008_002549
2008_002640
2008_002733
2008_002826
2008_002834
2008_002900
2008_002910
2008_003406
2008_003492
2008_003604
2008_003720
2008_003766
2008_003767
2008_003997
2008_004030
2008_004165
2008_004263
2008_004291
2008_004306
2008_004326
2008_004380
2008_004471
2008_004479
2008_004659
2008_004663
2008_004766
2008_004795
2008_005072
2008_005085
2008_005346
2008_005443
2008_005455
2008_005512
2008_005536
2008_005631
2008_005698
2008_005752
2008_005761
2008_005774
2008_005895
2008_006020
2008_006100
2008_006109
2008_006163
2008_006182
2008_006219
2008_006220
2008_006224
2008_006234
2008_006275
2008_006400
2008_006449
2008_006512
2008_006549
2008_006567
2008_006715
2008_006839
2008_006874
2008_006992
2008_007054
2008_007060
2008_007103
2008_007321
2008_007458
2008_007494
2008_007496
2008_007596
2008_007697
2008_007764
2008_007817
2008_007848
2008_008043
2008_008057
2008_008148
2008_008199
2008_008262
2008_008275
2008_008300
2008_008342
2008_008347
2008_008446
2008_008732
2009_000009
2009_000055
2009_000085
2009_000119
2009_000282
2009_000298
2009_000350
2009_000414
2009_000457
2009_000463
2009_000648
2009_000677
2009_000732
2009_000934
2009_000985
2009_001042
2009_001172
2009_001206
2009_001270
2009_001385
2009_001484
2009_001518
2009_001581
2009_001848
2009_001898
2009_001904
2009_001979
2009_002002
2009_002111
2009_002137
2009_002155
2009_002225
2009_002306
2009_002326
2009_002568
2009_002594
2009_002704
2009_002708
2009_002842
2009_002856
2009_002869
2009_002887
2009_003116
2009_003138
2009_003209
2009_003241
2009_003257
2009_003455
2009_003499
2009_003810
2009_003813
2009_004005
2009_004069
2009_004075
2009_004113
2009_004247
2009_004319
2009_004350
2009_004432
2009_004457
2009_004530
2009_004570
2009_004710
2009_004789
2009_004913
2009_004953
2009_004965
2009_005044
2009_005081
2009_005189
2009_005190
2010_000050
2010_000091
2010_000169
2010_000283
2010_000285
2010_000310
2010_000447
2010_000468
2010_000480
2010_000484
2010_000493
2010_000515
2010_000655
2010_000690
2010_000695
2010_000747
2010_000760
2010_000791
2010_000910
2010_001104
2010_001147
2010_001229
2010_001272
2010_001355
2010_001528
2010_001635
2010_001660
2010_001694
2010_001731
2010_001771
2010_001788
2010_001801
2010_001819
2010_001858
2010_001921
2010_001927
2010_001970
2010_002019
2010_002026
2010_002095
2010_002104
2010_002147
2010_002182
2010_002223
2010_002307
2010_002319
2010_002321
2010_002368
2010_002487
2010_002532
2010_002561
2010_002688
2010_002720
2010_002838
2010_002939
2010_003040
2010_003082
2010_003185
2010_003227
2010_003230
2010_003249
2010_003301
2010_003345
2010_003512
2010_003535
2010_003675
2010_003680
2010_003811
2010_003925
2010_003931
2010_003949
2010_003954
2010_003956
2010_004021
2010_004065
2010_004072
2010_004102
2010_004138
2010_004256
2010_004297
2010_004320
2010_004360
2010_004387
2010_004540
2010_004550
2010_004696
2010_004792
2010_004804
2010_004856
2010_004888
2010_004937
2010_004944
2010_005023
2010_005031
2010_005134
2010_005202
2010_005252
2010_005275
2010_005364
2010_005402
2010_005425
2010_005489
2010_005543
2010_005582
2010_005738
2010_005784
2010_005883
2010_005897
2010_005957
2010_006096
2010_006111
2010_006209
2010_006219
2010_006351
2010_006385
2010_006395
2010_006396
2010_006517
2010_006703
2010_006750
2010_006906
2010_006917
2010_006923
2010_006934
2010_006944
2010_006968
2010_006977
2011_000076
2011_000142
2011_000163
2011_000197
2011_000210
2011_000269
2011_000374
2011_000379
2011_000453
2011_000469
2011_000485
2011_000819
2011_000828
2011_000951
2011_001068
2011_001253
2011_001501
2011_001510
2011_001568
2011_001579
2011_001647
2011_001674
2011_001766
2011_001782
2011_001789
2011_001796
2011_001926
2011_001959
2011_002106
2011_002269
2011_002309
2011_002350
2011_002357
2011_002414
2011_002421
2011_002474
2011_002520
2011_002558
2011_002638
2011_002838
2011_002880
2011_002912
2011_003028
2011_003098
2011_003141
2011_003145
2011_003146
2011_003148
2011_003216
2011_003424
2011_003474
2011_003534
2011_003631
2011_003708
2011_003709
2011_003807
2011_003810
2011_003942
2011_003979
2011_004022
2011_004183
2011_004253
2011_004316
2011_004332
2011_004477
2011_004556
2011_004733
2011_004764
2011_004778
2011_004840
2011_004858
2011_004862
2011_004896
2011_004957
2011_004972
2011_005095
2011_005099
2011_005249
2011_005252
2011_005341
2011_005368
2011_005377
2011_005462
2011_005513
2011_005517
2011_005643
2011_005732
2011_005810
2011_005866
2011_005869
2011_005876
2011_005925
2011_006020
2011_006022
2011_006039
2011_006205
2011_006237
2011_006271
2011_006304
2011_006311
2011_006333
2011_006338
2011_006361
2011_006407
2011_006504
2011_006516
2011_006610
2011_006704
2011_006718
2011_006720
2011_006763
2011_006912
2011_007056
2011_007117
2011_007134
2011_007154
2011_007186
2012_000122
2012_000136
2012_000150
2012_000198
2012_000217
2012_000288
2012_000300
2012_000304
2012_000441
2012_000454
2012_000471
2012_000473
2012_000517
2012_000619
2012_000766
2012_000825
2012_001126
2012_001178
2012_001195
2012_001271
2012_001569
2012_001586
2012_001590
2012_001777
2012_001922
2012_001939
2012_002126
2012_002321
2012_002370
2012_002498
2012_002535
2012_002625
2012_002646
2012_002693
2012_002742
2012_002793
2012_002808
2012_002865
2012_002904
2012_002935
2012_002944
2012_003025
2012_003109
2012_003152
2012_003185
2012_003199
2012_003404
2012_003441
2012_003507
2012_003513
2012_003577
2012_003579
2012_003623
2012_003748
2012_003815
2012_003848
2012_003872
2012_003878
2012_003923
2012_004046
2012_004093
2012_004096
2012_004137
2012_004262
2012_004270
2012_004328